<?xml version="1.0" encoding="UTF-8"?>
<svg width="391px" height="464px" viewBox="0 0 391 464" version="1.1" xmlns="http://www.w3.org/2000/svg" xmlns:xlink="http://www.w3.org/1999/xlink">
    <!-- Generator: Sketch 44.1 (41455) - http://www.bohemiancoding.com/sketch -->
    <title>image_splash_4</title>
    <desc>Created with Sketch.</desc>
    <defs></defs>
    <g id="Claim---2" stroke="none" stroke-width="1" fill="none" fill-rule="evenodd">
        <g id="Get-Started-Copy-25" transform="translate(-23.000000, -102.000000)">
            <g id="image_splash_4" transform="translate(23.000000, 102.000000)">
                <g id="Group" fill-rule="nonzero">
                    <rect id="Rectangle-path" fill="#FFFFFF" x="0" y="0" width="384.684" height="375" rx="8"></rect>
                    <path d="M8,0 L376.684,0 L376.684,0 C381.102278,-3.22053779e-14 384.684,3.581722 384.684,8 L384.684,78.225 L0,78.225 L0,8 L0,8 C-5.41083001e-16,3.581722 3.581722,8.11624501e-16 8,0 Z" id="Rectangle-path" fill="#55B1E6"></path>
                </g>
                <path d="M188.552,167.585 C167.261,167.585 150,163.178 150,158.659 L150,169.067 C150.012,173.584 167.267,178 188.552,178 C209.837,178 227.092,173.584 227.103,169.067 L227.103,158.66 C227.103,163.18 209.843,167.586 188.552,167.586" id="Shape" fill="#F4BF1A" fill-rule="nonzero"></path>
                <path d="M197.448,151.22 C176.158,151.22 158.897,146.813 158.897,142.293 L158.897,152.7 C158.908,157.217 176.163,161.633 197.448,161.633 C218.733,161.633 235.988,157.217 236,152.7 L236,142.292 C236,146.812 218.74,151.219 197.448,151.219" id="Shape" fill="#E4AF18" fill-rule="nonzero"></path>
                <path d="M227.103,124.632 C227.103,129.151 209.843,133.366 188.552,133.366 C167.261,133.366 150,129.15 150,124.632 C150,120.112 167.26,117 188.552,117 C209.842,117 227.103,120.112 227.103,124.632" id="Shape" fill="#FFD949" fill-rule="nonzero"></path>
                <path d="M188.552,133.366 C167.261,133.366 150,128.959 150,124.439 L150,134.848 C150.012,139.365 167.267,143.78 188.552,143.78 C209.837,143.78 227.092,139.365 227.103,134.848 L227.103,124.439 C227.103,128.959 209.843,133.366 188.552,133.366" id="Shape" fill="#F4BF1A" fill-rule="nonzero"></path>
                <path d="M155.931,129.013 L155.931,139.42 C156.833,139.753 157.821,140.074 158.897,140.38 L158.897,129.972 C157.896661,129.689253 156.907297,129.369028 155.931,129.012 M218.207,129.972 L218.207,140.381 C219.207229,140.098601 220.196285,139.778033 221.172,139.42 L221.172,129.013 C220.271,129.346 219.283,129.666 218.207,129.973 M163.345,131.052 L163.345,141.462 C164.329983,141.666899 165.318467,141.854594 166.31,142.025 L166.31,131.615 C165.318467,131.444594 164.329983,131.256899 163.345,131.052 M210.793,131.615 L210.793,142.026 C211.784745,141.854568 212.773551,141.666542 213.759,141.462 L213.759,131.052 C212.809,131.25 211.821,131.438 210.793,131.615 M170.759,132.278 L170.759,142.69 C171.725,142.815 172.711,142.931 173.724,143.035 L173.724,132.623 C172.734287,132.520182 171.745879,132.405174 170.759,132.278 M203.38,132.625 L203.38,143.037 C204.369636,142.933115 205.358035,142.817774 206.345,142.691 L206.345,132.278 C205.378,132.405 204.392,132.521 203.379,132.625 M178.172,133.007 L178.172,143.42 C179.147,143.489 180.134,143.55 181.138,143.599 L181.138,133.184 C180.134,133.135 179.147,133.076 178.172,133.007 M195.966,133.184 L195.966,143.6 C196.969,143.55 197.956,143.49 198.931,143.421 L198.931,133.008 C197.957,133.077 196.969,133.136 195.966,133.185 M188.552,133.366 C188.055,133.366 187.562,133.361 187.069,133.356 L187.069,143.772 C187.561,143.776 188.055,143.78 188.552,143.78 C189.048,143.78 189.542,143.776 190.034,143.772 L190.034,133.357 C189.542,133.361 189.048,133.366 188.552,133.366" id="Shape" fill="#DCA815" fill-rule="nonzero"></path>
                <path d="M164.828,146.866 L164.828,157.273 C165.729,157.607 166.717,157.928 167.793,158.235 L167.793,147.825 C166.793011,147.542559 165.803981,147.222667 164.828,146.866 M227.103,147.826 L227.103,158.235 C228.103579,157.952296 229.09297,157.631394 230.069,157.273 L230.069,146.866 C229.167,147.199 228.179,147.519 227.103,147.826 M172.241,148.906 L172.241,159.316 C173.191,159.514 174.179,159.701 175.207,159.879 L175.207,149.469 C174.215133,149.298606 173.226315,149.11091 172.241,148.906 M219.69,149.468 L219.69,159.88 C220.681411,159.708557 221.669883,159.520531 222.655,159.316 L222.655,148.906 C221.706,149.104 220.717,149.291 219.69,149.468 M179.655,150.133 L179.655,160.545 C180.622,160.67 181.608,160.786 182.621,160.89 L182.621,150.48 C181.631031,150.376123 180.642298,150.260782 179.655,150.134 M212.276,150.477 L212.276,160.89 C213.289,160.785 214.275,160.669 215.241,160.545 L215.241,150.133 C214.275,150.258 213.289,150.374 212.276,150.477 M187.069,150.861 L187.069,161.274 C188.043,161.343 189.031,161.404 190.034,161.453 L190.034,151.038 C189.031,150.988 188.044,150.929 187.069,150.861 M204.862,151.038 L204.862,161.453 C205.866,161.403 206.853,161.343 207.828,161.274 L207.828,150.861 C206.853,150.929 205.866,150.989 204.862,151.038 M197.448,151.22 C196.952,151.22 196.458,151.215 195.966,151.21 L195.966,161.625 C196.458,161.63 196.952,161.635 197.448,161.635 C197.945,161.635 198.438,161.63 198.931,161.625 L198.931,151.211 C198.439,151.215 197.945,151.22 197.448,151.22" id="Shape" fill="#C49214" fill-rule="nonzero"></path>
                <path d="M155.931,163.232 L155.931,173.639 C156.833,173.973 157.821,174.292 158.897,174.6 L158.897,164.192 C157.896661,163.909253 156.907297,163.589028 155.931,163.232 M218.207,164.192 L218.207,174.6 C219.207215,174.31793 220.196271,173.997696 221.172,173.64 L221.172,163.232 C220.271,163.565 219.283,163.885 218.207,164.192 M163.345,165.272 L163.345,175.682 C164.294,175.88 165.283,176.067 166.31,176.244 L166.31,165.834 C165.318473,165.663926 164.329989,165.476565 163.345,165.272 M210.793,165.834 L210.793,176.246 C211.784745,176.074568 212.773551,175.886542 213.759,175.682 L213.759,165.272 C212.809,165.47 211.821,165.657 210.793,165.834 M170.759,166.5 L170.759,176.91 C171.725,177.036 172.711,177.152 173.724,177.256 L173.724,166.844 C172.734368,166.740448 171.745969,166.62544 170.759,166.499 M203.38,166.843 L203.38,177.256 C204.369632,177.152448 205.358031,177.03744 206.345,176.911 L206.345,166.499 C205.378,166.624 204.392,166.74 203.379,166.843 M178.172,167.227 L178.172,177.64 C179.147,177.708 180.134,177.77 181.138,177.818 L181.138,167.404 C180.134,167.354 179.147,167.295 178.172,167.227 M195.966,167.404 L195.966,177.818 C196.969,177.769 197.956,177.708 198.931,177.64 L198.931,167.227 C197.957,167.295 196.969,167.355 195.966,167.404 M188.552,167.585 C188.055,167.585 187.562,167.581 187.069,167.576 L187.069,177.991 C187.561,177.996 188.055,178 188.552,178 C189.048,178 189.542,177.996 190.034,177.991 L190.034,167.576 C189.542,167.581 189.048,167.586 188.552,167.586" id="Shape" fill="#DCA815" fill-rule="nonzero"></path>
                <path d="M197.448,161.634 C177.857,161.634 161.69,157.892 159.232,153.774 C153.48,155.082 150,156.824 150,158.852 C150,163.37 167.26,167.585 188.552,167.585 C209.842,167.585 227.103,163.37 227.103,158.852 C227.103,158.652 227.059,158.458 226.993,158.264 C219.921,160.261 209.313,161.634 197.448,161.634" id="Shape" fill="#FFD949" fill-rule="nonzero"></path>
                <path d="M225.61,137.158 C220.997,140.758 206.158,143.78 188.552,143.78 C177.182,143.78 166.964,142.519 159.908,140.656 C159.254,141.236 158.897,141.846 158.897,142.486 C158.897,147.006 176.157,151.22 197.448,151.22 C218.739,151.22 236,147.006 236,142.486 C236,140.326 232.051,138.488 225.61,137.158" id="Shape" fill="#FCC62D" fill-rule="nonzero"></path>
                <g id="Group" transform="translate(114.000000, 185.000000)" font-size="43" font-family="Helvetica" fill="#EEEFF1" font-weight="normal">
                    <text id="P-X,XXX">
                        <tspan x="0.258" y="42">P X,XXX</tspan>
                    </text>
                </g>
                <g id="Group" transform="translate(42.000000, 257.000000)">
                    <rect id="Rectangle-path" fill="#A8D356" fill-rule="nonzero" x="0" y="0" width="293" height="78" rx="8"></rect>
                    <g transform="translate(76.000000, 12.000000)" id="Encash" font-size="43" font-family="Helvetica" fill="#FFFFFF" font-weight="normal">
                        <text>
                            <tspan x="0.968" y="42">Encash</tspan>
                        </text>
                    </g>
                </g>
                <g id="Group" transform="translate(235.000000, 270.000000)" fill-rule="nonzero" fill="#FFD8A5">
                    <path d="M154.507,97.716 C151.363,78.941 138.158,75.941 131.954,75.588 C130.001,75.477 128.187,74.484 127.115,72.844 C122.62,65.966 116.596,64.147 111.48,64.147 C107.805,64.147 104.598,65.085 102.763,65.763 C102.533,65.848 102.297,65.888 102.065,65.888 C101.318484,65.8825185 100.631113,65.4807591 100.26,64.833 C95.696,56.983 89.205,54.958 83.724,54.958 C80.534,54.958 77.687,55.644 75.759,56.266 C75.559,56.33 75.122,56.361 74.924,56.361 C73.876,56.361 72.724,55.5 72.724,54.374 L72.724,14.01 C72.724,4.782 65.864,0.17 58.96,0.17 C52.056,0.17 45.195,4.782 45.195,14.01 L45.195,85.014 C45.195,89.186 42.015,91.766 38.59,91.766 C36.508,91.766 34.503,90.814 33.124,88.69 L26.502,78.42 C23.576,73.58 19.348,71.574 15.136,71.573 C5.616,71.572 -3.696,81.823 2.92,92.766 L55.05,192.852 C55.39,193.506 56.072,194 56.809,194 L130.018,194 C131.063,194 131.928,193.101 131.991,192.056 L133.823,162.106 C133.844809,161.752999 133.9567,161.411473 134.148,161.114 C152.321,133.524 157.524,115.743 154.506,97.716 L154.507,97.716 Z" id="Shape"></path>
                </g>
            </g>
        </g>
    </g>
</svg>