<?xml version="1.0" encoding="UTF-8"?>
<svg width="391px" height="464px" viewBox="0 0 391 464" version="1.1" xmlns="http://www.w3.org/2000/svg" xmlns:xlink="http://www.w3.org/1999/xlink">
    <!-- Generator: Sketch 44.1 (41455) - http://www.bohemiancoding.com/sketch -->
    <title>image_splash_2</title>
    <desc>Created with Sketch.</desc>
    <defs></defs>
    <g id="Claim---2" stroke="none" stroke-width="1" fill="none" fill-rule="evenodd">
        <g id="Get-Started-Copy-25" transform="translate(-20.000000, -35.000000)">
            <g id="image_splash_2" transform="translate(20.000000, 35.000000)">
                <g id="Group" fill-rule="nonzero">
                    <rect id="Rectangle-path" fill="#FFFFFF" x="0" y="0" width="384.684" height="375" rx="8"></rect>
                    <path d="M8,0 L376.684,0 L376.684,0 C381.102278,-3.22053779e-14 384.684,3.581722 384.684,8 L384.684,78.225 L0,78.225 L0,8 L0,8 C-5.41083001e-16,3.581722 3.581722,8.11624501e-16 8,0 Z" id="Rectangle-path" fill="#55B1E6"></path>
                </g>
                <path d="M62.487,183.641 L71.6,179.733 C72.094,179.486 72.496,178.688 72.779,178.119 C72.8966359,177.877765 72.881627,177.592932 72.7392897,177.365396 C72.5969525,177.137859 72.3473889,176.999754 72.079,177 L65.634,177 C65.634,177 63.304,176.772 61.507,176 C60.454,175.548 60.092,174.951 60.75,174.014 C62.675,171.274 66.654,164.822 66.783,158.159 C66.783,158.159 67.004,147.902 77.123,147.819 C83.026,147.868 85.814,151.342 87.113,154.229 C87.837,155.84 88.148,157.596 88.264,159.358 C88.684,165.709 91.918,171.518 93.425,174 C93.936,174.842 93.689,175.963 92.844,176.469 C91.458,177.298 89.761,177 89.761,177 L83.273,177 C82.639,177 82.359,177.886 82.857,178.279 C83.263,178.599 83.65,178.888 83.859,179.002 L91.439,183.589 C92.5116601,184.176873 93.3986866,185.052816 94,186.118 C89.2929413,189.931277 83.4168394,192.00827 77.359,192 C71.0437534,192.007757 64.9352044,189.75005 60.143,185.637 C60.7542821,184.794541 61.5579009,184.110231 62.487,183.641 Z" id="Shape" fill="#E7ECED" fill-rule="nonzero"></path>
                <path d="M77.5,139 C62.864,139 51,150.865 51,165.5 C51,173.522 54.57,180.706 60.202,185.566 C60.8047063,184.75602 61.5872553,184.09705 62.488,183.641 L71.601,179.733 C72.095,179.486 72.497,178.688 72.78,178.119 C72.8976359,177.877765 72.882627,177.592932 72.7402897,177.365396 C72.5979525,177.137859 72.3483889,176.999754 72.08,177 L65.635,177 C65.635,177 63.305,176.772 61.508,176 C60.455,175.548 60.093,174.951 60.751,174.014 C62.676,171.274 66.655,164.822 66.784,158.159 C66.784,158.159 67.005,147.902 77.124,147.819 C83.027,147.868 85.815,151.342 87.114,154.229 C87.838,155.84 88.149,157.596 88.265,159.358 C88.685,165.709 91.919,171.518 93.426,174 C93.937,174.842 93.69,175.963 92.845,176.469 C91.458,177.298 89.761,177 89.761,177 L83.273,177 C82.639,177 82.359,177.886 82.857,178.279 C83.263,178.599 83.65,178.888 83.859,179.002 L91.439,183.589 C92.5032233,184.171828 93.3843875,185.039143 93.984,186.094 C94.01,186.119 94.039,186.142 94.064,186.169 C100.117,181.313 104,173.864 104,165.5 C104,150.865 92.136,139 77.5,139 L77.5,139 Z" id="Shape" fill="#9B59B6" fill-rule="nonzero"></path>
                <g id="Group" transform="translate(124.000000, 148.000000)" fill-rule="nonzero" fill="#EEEFF1">
                    <path d="M0,0 L211.422,0 L211.422,14 L0,14 L0,0 Z M0,24 L125.322,24 L125.322,36 L0,36 L0,24 Z" id="Shape"></path>
                </g>
                <g id="Group" transform="translate(42.000000, 257.000000)">
                    <rect id="Rectangle-path" fill="#A8D356" fill-rule="nonzero" x="0" y="0" width="293" height="78" rx="8"></rect>
                    <g transform="translate(79.000000, 12.000000)" id="Accept" font-size="43" font-family="Helvetica" fill="#FFFFFF" font-weight="normal">
                        <text>
                            <tspan x="0.393" y="42">Accept</tspan>
                        </text>
                    </g>
                </g>
                <path d="M389.507,367.716 C386.363,348.941 373.158,345.941 366.954,345.588 C365.001,345.477 363.187,344.484 362.115,342.844 C357.62,335.966 351.596,334.147 346.48,334.147 C342.805,334.147 339.598,335.085 337.763,335.763 C337.533,335.848 337.297,335.888 337.065,335.888 C336.318484,335.882519 335.631113,335.480759 335.26,334.833 C330.696,326.983 324.205,324.958 318.724,324.958 C315.534,324.958 312.687,325.644 310.759,326.266 C310.559,326.33 310.122,326.361 309.924,326.361 C308.876,326.361 307.724,325.5 307.724,324.374 L307.724,284.01 C307.724,274.782 300.864,270.17 293.96,270.17 C287.056,270.17 280.195,274.782 280.195,284.01 L280.195,355.014 C280.195,359.186 277.015,361.766 273.59,361.766 C271.508,361.766 269.503,360.814 268.124,358.69 L261.502,348.42 C258.576,343.58 254.348,341.574 250.136,341.573 C240.616,341.572 231.304,351.823 237.92,362.766 L290.051,462.853 C290.391,463.507 291.073,464.001 291.81,464.001 L365.019,464.001 C366.064,464.001 366.929,463.102 366.992,462.057 L368.824,432.107 C368.845809,431.753999 368.9577,431.412473 369.149,431.115 C387.322,403.525 392.525,385.744 389.507,367.717 L389.507,367.716 Z" id="Shape" fill="#FFD8A5" fill-rule="nonzero"></path>
            </g>
        </g>
    </g>
</svg>